<svg version="1.2" xmlns="http://www.w3.org/2000/svg" viewBox="0 0 20 20" width="20" height="20">
	<title>modal window</title>
	<defs>
		<image  width="20" height="20" id="img1" href="data:image/png;base64,iVBORw0KGgoAAAANSUhEUgAAABQAAAAUAgMAAADw5/WeAAAAAXNSR0IB2cksfwAAAAxQTFRF////////////////9aUOcwAAAAR0Uk5TuFsA+lbU2rwAAABMSURBVHicPY2xDcBACAM9RzYMA9BllO9eQnihSEwT6y2l4AoMZ1wkN1JcWGKigj3oYQWYXIQmxbpH7DdEPvzpjVNfni8bbLPZLafxA5TqPjuRGTxmAAAAAElFTkSuQmCC"/>
	</defs>
	<style>
	</style>
	<g id="modal window">
		<use id="cross" href="#img1" x="0" y="0"/>
	</g>
</svg>