<?xml version="1.0" encoding="utf-8"?><!-- Uploaded to: SVG Repo, www.svgrepo.com, Generator: SVG Repo Mixer Tools -->
<svg width="40px" height="40px" viewBox="0 0 24 24" fill="yellow" xmlns="http://www.w3.org/2000/svg">
<path d="M12 17L6 20L7.5 14L3 9L9.5 8.5L12 3L14.5 8.5L21 9L16.5 14L18 20L12 17Z" stroke="#000000" stroke-width="1.5" stroke-linecap="round" stroke-linejoin="round"/>
</svg>